101,6033412694,6034728458,Chris,Klardie,December,12/22/1964,BB,102,Wife,,,,,Cigna,12/31/2017,123123456,chrisk@shoregroup.com
102,,6034728458,Donna,Klardie,July,07/18/1963,BB,101,Husband,,,,,Cigna,12/31/2017,123123456,chrisk@shoregroup.com
105,,,Jeff,Patch,October,10/31/1989,M,,,,,,,United Health Group,6/30/2018,4324322,
106,,,Lisa,Brown,January,01/01/1972,X,107,Husband,108,Son,,,Cigna,10/1/2017,6543543,
107,,,David,Brown,April,04/15/1970,X,106,Wife,108,Son,,,Cigna,10/01/2017,6543543,
108,,,John,Brown,May,05/05/2007,C,106,Mother,107,Father,,,Cigna,10/1/2017,6543543,
109,,,Mary,Davis,November,11/20/1963,BB,110,Husband,111,Pet,,,United Health Group,06/30/2018,455436,
110,,,Robert,Davis,March,03/10/1960,BB,109,Wife,111,Pet,,,United Health Group,06/30/2018,455436,
111,,,Bowser,Davis,May,05/05/2016,PET,109,Owner,110,Owner,,,NA,09/30/2019,455436,
112,2077300996,3154142139,Scott,Olivier,February,02/14/1959,BB,113,Wife,114,Daughter,,,Cigna,11/1/2017,43543543,Scott.Olivier@ShoreGroup.com
113,,3154142139,Vickie,Olivier,June,06/01/1962,BB,112,Husband,114,Daughter,,,Cigna,11/1/2017,43543543,Scott.Olivier@ShoreGroup.com
114,,3154142139,Claire,Olivier,August,08/10/1972,X,112,Father,113,Mother,,,Cigna,11/1/2017,43543543,Scott.Olivier@ShoreGroup.com