201,102,501,Metformin,3,N,Y,Y,N,Y,10/15/2017,,,Y,15,215,30,Triggers Refill Case for Wife
205,105,201,Adderall,2,Y,Y,Y,N,N,11/1/2017,10/19/2017,2:00 PM,N,0,150,30,Triggers Clinic + Controlled Drug
206,107,401,Catopril,3,N,Y,Y,N,N,11/1/2017,10/19/2017,2:00 PM,Y,10,200,30,Triggers Maint Med + OTC
207,108,301,Amoxicilin,0,N,Y,Y,N,N,,10/19/2017,11:00 AM,Y,10,75,10,Triggers OTC
208,109,501,Metformin,2,N,Y,Y,N,N,11/1/2017,10/19/2017,11:00 AM,Y,10,150,30,Triggers Maint Med + OTC
209,110,601,Levatol,1,N,Y,Y,N,N,11/1/2017,10/19/2017,11:00 AM,Y,15,200,30,Triggers Clinic + OTC
210,111,910,Rimadyl,0,N,N,Y,N,N,,10/19/2017,11:00 AM,N,0,27,30,Triggers PET Med
211,112,114,Ambien,2,Y,Y,Y,N,N,11/1/2017,10/19/2017,11:00 AM,Y,10,150,30,Triggers OTC
212,112,116,Provigil,1,Y,Y,N,N,N,11/1/2017,10/20/2017,,Y,15,250,30,Triggers Controlled Drug
213,114,201,Adderall,3,Y,Y,Y,N,N,11/1/2017,10/20/2017,,Y,10,100,30,Triggers Clinic + Controlled Drug